{
    "key": "group_5ec6177328d2a",
    "title": "About",
    "fields": [
        {
            "key": "field_5ec6193d9d809",
            "label": "Image",
            "name": "about_image",
            "type": "image",
            "instructions": "Dimensions obligatoires : 368px (largeur) * 412px (hauteur)",
            "required": 1,
            "conditional_logic": 0,
            "wrapper": {
                "width": "",
                "class": "",
                "id": ""
            },
            "acfe_permissions": "",
            "acfe_uploader": "wp",
            "acfe_thumbnail": 0,
            "return_format": "array",
            "preview_size": "full",
            "library": "all",
            "min_width": 368,
            "min_height": 412,
            "min_size": "",
            "max_width": 368,
            "max_height": 412,
            "max_size": "",
            "mime_types": "",
            "translations": "copy_once"
        },
        {
            "key": "field_5ec619c19d80a",
            "label": "Titre",
            "name": "about_title",
            "type": "text",
            "instructions": "",
            "required": 1,
            "conditional_logic": 0,
            "wrapper": {
                "width": "",
                "class": "",
                "id": ""
            },
            "acfe_permissions": "",
            "default_value": "",
            "placeholder": "",
            "prepend": "",
            "append": "",
            "maxlength": "",
            "translations": "translate"
        },
        {
            "key": "field_5ec61a0e9d80b",
            "label": "Description",
            "name": "about_desc",
            "type": "wysiwyg",
            "instructions": "",
            "required": 1,
            "conditional_logic": 0,
            "wrapper": {
                "width": "",
                "class": "",
                "id": ""
            },
            "acfe_permissions": "",
            "default_value": "",
            "tabs": "all",
            "toolbar": "dfwp_bold_only",
            "media_upload": 0,
            "delay": 0,
            "translations": "translate"
        },
        {
            "key": "field_5ec61a249d80c",
            "label": "CTA link",
            "name": "about_cta_link",
            "type": "page_link",
            "instructions": "",
            "required": 1,
            "conditional_logic": 0,
            "wrapper": {
                "width": "",
                "class": "",
                "id": ""
            },
            "acfe_permissions": "",
            "post_type": [
                "page"
            ],
            "taxonomy": "",
            "allow_null": 0,
            "allow_archives": 1,
            "multiple": 0,
            "translations": "copy_once"
        },
        {
            "key": "field_5ec61a449d80d",
            "label": "CTA label",
            "name": "about_cta_label",
            "type": "text",
            "instructions": "",
            "required": 1,
            "conditional_logic": 0,
            "wrapper": {
                "width": "",
                "class": "",
                "id": ""
            },
            "acfe_permissions": "",
            "default_value": "",
            "placeholder": "",
            "prepend": "",
            "append": "",
            "maxlength": "",
            "translations": "translate"
        }
    ],
    "location": [
        [
            {
                "param": "page_template",
                "operator": "==",
                "value": "page-accueil.php"
            }
        ]
    ],
    "menu_order": 8,
    "position": "normal",
    "style": "default",
    "label_placement": "left",
    "instruction_placement": "label",
    "hide_on_screen": "",
    "active": 1,
    "description": "",
    "acfe_display_title": "",
    "acfe_autosync": [
        "php",
        "json"
    ],
    "acfe_permissions": "",
    "acfe_form": 0,
    "acfe_meta": "",
    "acfe_note": "",
    "modified": 1591332291
}