{
    "key": "group_5ec628d5419df",
    "title": "Get lead - accueil - 2",
    "fields": [
        {
            "key": "field_5ec628d9575b5",
            "label": "Get lead 2",
            "name": "get_lead2",
            "type": "clone",
            "instructions": "",
            "required": 1,
            "conditional_logic": 0,
            "wrapper": {
                "width": "",
                "class": "",
                "id": ""
            },
            "acfe_permissions": "",
            "clone": [
                "group_5ec62795d4063"
            ],
            "display": "seamless",
            "layout": "block",
            "prefix_label": 0,
            "prefix_name": 1,
            "acfe_clone_modal": 0
        }
    ],
    "location": [
        [
            {
                "param": "post_template",
                "operator": "==",
                "value": "page-accueil.php"
            }
        ]
    ],
    "menu_order": 15,
    "position": "normal",
    "style": "default",
    "label_placement": "left",
    "instruction_placement": "label",
    "hide_on_screen": [
        "block_editor",
        "the_content",
        "excerpt",
        "discussion",
        "comments",
        "format",
        "featured_image",
        "categories",
        "tags",
        "send-trackbacks"
    ],
    "active": 1,
    "description": "",
    "acfe_display_title": "",
    "acfe_autosync": [
        "php",
        "json"
    ],
    "acfe_permissions": "",
    "acfe_form": 0,
    "acfe_meta": "",
    "acfe_note": "",
    "modified": 1591332296
}