<svg xmlns="http://www.w3.org/2000/svg" xmlns:xlink="http://www.w3.org/1999/xlink" id="logosmall" width="65.635" height="67.647" viewBox="0 0 65.635 67.647">
    <g id="Groupe_10589" data-name="Groupe 10589" transform="translate(-383.592 -175.142)">
      <path id="Tracé_8190" data-name="Tracé 8190" d="M416.41,182.962a25,25,0,0,1,25,25h7.82a32.818,32.818,0,1,0-65.635,0h7.82a25,25,0,0,1,25-25" fill="#79bbd6"/>
      <path id="Tracé_8191" data-name="Tracé 8191" d="M417.49,184.043a25,25,0,0,0-25,25h8.722a16.275,16.275,0,0,1,32.551,0h8.723a25,25,0,0,0-25-25" transform="translate(-1.081 -1.081)" fill="#2b8ece"/>
      <path id="Tracé_8192" data-name="Tracé 8192" d="M418.7,193.971a16.275,16.275,0,0,0-16.276,16.275h32.55A16.275,16.275,0,0,0,418.7,193.971" transform="translate(-2.286 -2.286)" fill="#29386c"/>
      <path id="Tracé_8193" data-name="Tracé 8193" d="M438.62,190.284l5.529-5.53a32.715,32.715,0,0,0-23.205-9.613v7.821a24.923,24.923,0,0,1,17.676,7.321" transform="translate(-4.535 0)" fill="#f1c825"/>
      <path id="Tracé_8194" data-name="Tracé 8194" d="M420.945,192.766a16.224,16.224,0,0,1,11.508,4.767l6.168-6.168a24.92,24.92,0,0,0-17.676-7.321Z" transform="translate(-4.535 -1.081)" fill="#d98a39"/>
      <path id="Tracé_8195" data-name="Tracé 8195" d="M432.453,198.738a16.223,16.223,0,0,0-11.509-4.767v16.276Z" transform="translate(-4.535 -2.286)" fill="#cc5f2c"/>
      <path id="Tracé_8196" data-name="Tracé 8196" d="M387.457,220.75h8.726a9.383,9.383,0,0,1,3.317.549,7.237,7.237,0,0,1,2.476,1.516,6.649,6.649,0,0,1,1.563,2.269,7.18,7.18,0,0,1,.546,2.8,7.1,7.1,0,0,1-.988,3.669,6.532,6.532,0,0,1-2.785,2.572l4.244,7.713H399.9l-3.449-6.644h-4.835v6.644h-4.157Zm4.157,3.756v6.963h4.245a4.97,4.97,0,0,0,1.783-.289,3.6,3.6,0,0,0,1.253-.78,3.042,3.042,0,0,0,.737-1.141,3.906,3.906,0,0,0,.236-1.343,3.215,3.215,0,0,0-1-2.485,4.3,4.3,0,0,0-3.006-.924Z" transform="translate(-0.469 -5.538)" fill="#181a2f"/>
      <path id="Tracé_8197" data-name="Tracé 8197" d="M419.807,242.624c-1.269,3.8-3.838,6.132-8.852,6.458l-.465-3.007c3.25-.413,4.364-1.357,5.262-3.48h-1.516l-5.107-15.626H413.8l3.281,12.914,3.466-12.914h4.55Z" transform="translate(-3.101 -6.293)" fill="#181a2f"/>
      <path id="Tracé_8198" data-name="Tracé 8198" d="M430.753,220.75h4.039l6.4,8.7,6.633-8.7h3.862v21.089h-4.069V227.047l-6.456,8.494-6.279-8.349v14.647h-4.128Z" transform="translate(-5.726 -5.538)" fill="#181a2f"/>
    </g>
</svg>