<svg xmlns="http://www.w3.org/2000/svg" width="21.393" height="17" viewBox="0 0 21.393 17">
  <g id="mail" transform="translate(-1.304 -3.5)">
    <g id="Groupe_10547" data-name="Groupe 10547">
      <path id="Tracé_8185" data-name="Tracé 8185" d="M4,4H20a2.006,2.006,0,0,1,2,2V18a2.006,2.006,0,0,1-2,2H4a2.006,2.006,0,0,1-2-2V6A2.006,2.006,0,0,1,4,4Z" fill="none" stroke-linecap="round" stroke-linejoin="round" stroke-width="1"/>
      <path id="Tracé_8186" data-name="Tracé 8186" d="M22,6,12,13,2,6" fill="none" stroke-linecap="round" stroke-linejoin="round" stroke-width="1"/>
    </g>
  </g>
</svg>
